Simulations OVB/type M trade-off: IV
…
  return(reg)
}

baseline_parameters_TWFE %>% 
  pmap_dfr(generate_data_TWFE) %>%
  estimate_TWFE() 

# A tibble: 89 x 5
     lag estimate    se statistic p_value
   <dbl>    <dbl> <dbl>     <dbl>   <dbl>
 1   -48    -9.06  3.82     -2.37  0.0317
 2   -47    -9.41  3.80     -2.47  0.0258
 3   -46   -10.1   3.93     -2.57  0.0213
 4   -45    -9.09  3.49     -2.60  0.0199
 5   -44    -9.58  3.80     -2.52  0.0234
 6   -43   -10.3   3.53     -2.92  0.0106
 7   -42    -8.87  3.32     -2.67  0.0173
 8   -41    -9.04  3.21     -2.81  0.0131
 9   -40    -9.83  3.35     -2.93  0.0103
10   -39    -8.92  3.60     -2.48  0.0257
#  with 79 more rows
…
Here is the output of one simulation:

baseline_parameters_TWFE %>% 
  pmap_dfr(compute_simulation_TWFE) 

# A tibble: 89 x 21
     lag estimate    se statistic p_value   N_i   N_t sigma_e p_treat
   <dbl>    <dbl> <dbl>     <dbl>   <dbl> <dbl> <dbl>   <dbl>   <dbl>
 1   -42     23.1  41.0     0.564   0.581    20    50       1     0.8
 2   -41     23.2  40.6     0.572   0.575    20    50       1     0.8
 3   -40     22.6  40.0     0.564   0.581    20    50       1     0.8
 4   -39     23.1  39.6     0.584   0.568    20    50       1     0.8
 5   -38     23.4  39.2     0.598   0.559    20    50       1     0.8
 6   -37     21.0  38.7     0.544   0.594    20    50       1     0.8
 7   -36     22.1  38.2     0.577   0.572    20    50       1     0.8
 8   -35     20.6  37.7     0.548   0.592    20    50       1     0.8
 9   -34     21.6  37.2     0.580   0.570    20    50       1     0.8
10   -33     20.3  36.8     0.550   0.591    20    50       1     0.8
#  with 79 more rows, and 12 more variables: staggered <lgl>,
#   het_indiv <chr>, het_time <chr>, alpha <dbl>, beta <dbl>,
#   mu_indiv_fe <dbl>, sigma_indiv_fe <dbl>, mu_time_fe <dbl>,
#   sigma_time_fe <dbl>, mu_x <dbl>, sigma_x <dbl>, gamma <dbl>
…
